cpc3lp52.domain.com | SUCCESS => {
    "ansible_facts": {
        "ansible_all_ipv4_addresses": [
            "192.168.161.222"
        ],
        "ansible_all_ipv6_addresses": [
            "fe80::57:52ff:fe00:7600"
        ],
        "ansible_apparmor": {
            "status": "disabled"
        },
        "ansible_architecture": "s390x",
        "ansible_bios_date": "NA",
        "ansible_bios_version": "NA",
        "ansible_cmdline": {
            "BOOT_IMAGE": "0",
            "LANG": "en_US.UTF-8",
            "cio_ignore": "all,!condev",
            "crashkernel": "auto",
            "rd.dasd": "0.0.3957",
            "rd.znet": "qeth,0.0.f500,0.0.f501,0.0.f502,layer2=1,portno=0,portname=OSAPORT",
            "root": "/dev/disk/by-path/ccw-0.0.3956-part1",
            "nosmt": true
        },
        "ansible_date_time": {
            "date": "2017-08-22",
            "day": "22",
            "epoch": "1503397469",
            "hour": "06",
            "iso8601": "2017-08-22T10:24:29Z",
            "iso8601_basic": "20170822T062429939704",
            "iso8601_basic_short": "20170822T062429",
            "iso8601_micro": "2017-08-22T10:24:29.939775Z",
            "minute": "24",
            "month": "08",
            "second": "29",
            "time": "06:24:29",
            "tz": "EDT",
            "tz_offset": "-0400",
            "weekday": "Dienstag",
            "weekday_number": "2",
            "weeknumber": "34",
            "year": "2017"
        },
        "ansible_default_ipv4": {
            "address": "192.168.161.222",
            "alias": "enccw0.0.f500",
            "broadcast": "192.168.163.255",
            "gateway": "192.168.160.1",
            "interface": "enccw0.0.f500",
            "macaddress": "02:57:52:00:76:00",
            "mtu": 1500,
            "netmask": "255.255.252.0",
            "network": "192.168.160.0",
            "type": "ether"
        },
        "ansible_default_ipv6": {},
        "ansible_devices": {
            "dasda": {
                "holders": [],
                "host": "",
                "model": null,
                "partitions": {
                    "dasda1": {
                        "holders": [],
                        "sectors": "14336064",
                        "sectorsize": 512,
                        "size": "6.84 GB",
                        "start": "192",
                        "uuid": "e483673b-49d0-437d-9c40-5a20347b7fd6"
                    }
                },
                "removable": "0",
                "rotational": "1",
                "sas_address": null,
                "sas_device_handle": null,
                "scheduler_mode": "deadline",
                "sectors": "14424480",
                "sectorsize": "4096",
                "size": "55.03 GB",
                "support_discard": "0",
                "vendor": "IBM"
            },
            "dasdb": {
                "holders": [],
                "host": "",
                "model": null,
                "partitions": {
                    "dasdb1": {
                        "holders": [],
                        "sectors": "14336064",
                        "sectorsize": 512,
                        "size": "6.84 GB",
                        "start": "192",
                        "uuid": "7537fbc6-0af6-42d6-a6c9-848ab8ecc446"
                    }
                },
                "removable": "0",
                "rotational": "1",
                "sas_address": null,
                "sas_device_handle": null,
                "scheduler_mode": "deadline",
                "sectors": "14424480",
                "sectorsize": "4096",
                "size": "55.03 GB",
                "support_discard": "0",
                "vendor": "IBM"
            }
        },
        "ansible_distribution": "RedHat",
        "ansible_distribution_major_version": "7",
        "ansible_distribution_release": "Maipo",
        "ansible_distribution_version": "7.2",
        "ansible_dns": {
            "nameservers": [
                "192.168.200.241"
            ],
            "search": [
                "domain.com"
            ]
        },
        "ansible_domain": "domain.com",
        "ansible_effective_group_id": 0,
        "ansible_effective_user_id": 0,
        "ansible_enccw0.0.f500": {
            "active": true,
            "device": "enccw0.0.f500",
            "features": {
                "busy_poll": "off [fixed]",
                "fcoe_mtu": "off [fixed]",
                "generic_receive_offload": "on",
                "generic_segmentation_offload": "off [requested on]",
                "highdma": "off [fixed]",
                "large_receive_offload": "off [fixed]",
                "loopback": "off [fixed]",
                "netns_local": "off [fixed]",
                "ntuple_filters": "off [fixed]",
                "receive_hashing": "off [fixed]",
                "rx_all": "off [fixed]",
                "rx_checksumming": "off [fixed]",
                "rx_fcs": "off [fixed]",
                "rx_vlan_filter": "on [fixed]",
                "rx_vlan_offload": "off [fixed]",
                "rx_vlan_stag_filter": "off [fixed]",
                "rx_vlan_stag_hw_parse": "off [fixed]",
                "scatter_gather": "off",
                "tcp_segmentation_offload": "off",
                "tx_checksum_fcoe_crc": "off [fixed]",
                "tx_checksum_ip_generic": "off [fixed]",
                "tx_checksum_ipv4": "off [fixed]",
                "tx_checksum_ipv6": "off [fixed]",
                "tx_checksum_sctp": "off [fixed]",
                "tx_checksumming": "off",
                "tx_fcoe_segmentation": "off [fixed]",
                "tx_gre_segmentation": "off [fixed]",
                "tx_gso_robust": "off [fixed]",
                "tx_ipip_segmentation": "off [fixed]",
                "tx_lockless": "off [fixed]",
                "tx_mpls_segmentation": "off [fixed]",
                "tx_nocache_copy": "off",
                "tx_scatter_gather": "off [fixed]",
                "tx_scatter_gather_fraglist": "off [fixed]",
                "tx_sit_segmentation": "off [fixed]",
                "tx_tcp6_segmentation": "off [fixed]",
                "tx_tcp_ecn_segmentation": "off [fixed]",
                "tx_tcp_segmentation": "off [fixed]",
                "tx_udp_tnl_segmentation": "off [fixed]",
                "tx_vlan_offload": "off [fixed]",
                "tx_vlan_stag_hw_insert": "off [fixed]",
                "udp_fragmentation_offload": "off [fixed]",
                "vlan_challenged": "off [fixed]"
            },
            "ipv4": {
                "address": "192.168.161.222",
                "broadcast": "192.168.163.255",
                "netmask": "255.255.252.0",
                "network": "192.168.160.0"
            },
            "ipv6": [
                {
                    "address": "fe80::57:52ff:fe00:7600",
                    "prefix": "64",
                    "scope": "link"
                }
            ],
            "macaddress": "02:57:52:00:76:00",
            "module": "qeth",
            "mtu": 1500,
            "pciid": "0.0.f500",
            "promisc": false,
            "speed": 1000,
            "type": "ether"
        },
        "ansible_env": {
            "HOME": "/root",
            "LANG": "de_DE.utf8",
            "LESSOPEN": "||/usr/bin/lesspipe.sh %s",
            "LOGNAME": "root",
            "MAIL": "/var/mail/root",
            "PATH": "/usr/local/sbin:/usr/local/bin:/usr/sbin:/usr/bin",
            "PWD": "/root",
            "SELINUX_LEVEL_REQUESTED": "",
            "SELINUX_ROLE_REQUESTED": "",
            "SELINUX_USE_CURRENT_RANGE": "",
            "SHELL": "/bin/bash",
            "SHLVL": "2",
            "SSH_CLIENT": "192.168.222.28 34232 22",
            "SSH_CONNECTION": "192.168.222.28 34232 192.168.161.222 22",
            "SSH_TTY": "/dev/pts/1",
            "TERM": "screen-256color",
            "USER": "root",
            "XDG_RUNTIME_DIR": "/run/user/0",
            "XDG_SESSION_ID": "2",
            "XMODIFIERS": "@im=ibus",
            "_": "/usr/bin/python"
        },
        "ansible_fips": false,
        "ansible_form_factor": "NA",
        "ansible_fqdn": "cpc3lp52.domain.com",
        "ansible_gather_subset": [
            "hardware",
            "network",
            "virtual"
        ],
        "ansible_hostname": "cpc3lp52",
        "ansible_interfaces": [
            "lo",
            "enccw0.0.f500"
        ],
        "ansible_kernel": "3.10.0-327.el7.s390x",
        "ansible_lo": {
            "active": true,
            "device": "lo",
            "features": {
                "busy_poll": "off [fixed]",
                "fcoe_mtu": "off [fixed]",
                "generic_receive_offload": "on",
                "generic_segmentation_offload": "on",
                "highdma": "on [fixed]",
                "large_receive_offload": "off [fixed]",
                "loopback": "on [fixed]",
                "netns_local": "on [fixed]",
                "ntuple_filters": "off [fixed]",
                "receive_hashing": "off [fixed]",
                "rx_all": "off [fixed]",
                "rx_checksumming": "on [fixed]",
                "rx_fcs": "off [fixed]",
                "rx_vlan_filter": "off [fixed]",
                "rx_vlan_offload": "off [fixed]",
                "rx_vlan_stag_filter": "off [fixed]",
                "rx_vlan_stag_hw_parse": "off [fixed]",
                "scatter_gather": "on",
                "tcp_segmentation_offload": "on",
                "tx_checksum_fcoe_crc": "off [fixed]",
                "tx_checksum_ip_generic": "on [fixed]",
                "tx_checksum_ipv4": "off [fixed]",
                "tx_checksum_ipv6": "off [fixed]",
                "tx_checksum_sctp": "off [fixed]",
                "tx_checksumming": "on",
                "tx_fcoe_segmentation": "off [fixed]",
                "tx_gre_segmentation": "off [fixed]",
                "tx_gso_robust": "off [fixed]",
                "tx_ipip_segmentation": "off [fixed]",
                "tx_lockless": "on [fixed]",
                "tx_mpls_segmentation": "off [fixed]",
                "tx_nocache_copy": "off [fixed]",
                "tx_scatter_gather": "on [fixed]",
                "tx_scatter_gather_fraglist": "on [fixed]",
                "tx_sit_segmentation": "off [fixed]",
                "tx_tcp6_segmentation": "on",
                "tx_tcp_ecn_segmentation": "on",
                "tx_tcp_segmentation": "on",
                "tx_udp_tnl_segmentation": "off [fixed]",
                "tx_vlan_offload": "off [fixed]",
                "tx_vlan_stag_hw_insert": "off [fixed]",
                "udp_fragmentation_offload": "on",
                "vlan_challenged": "on [fixed]"
            },
            "ipv4": {
                "address": "127.0.0.1",
                "broadcast": "host",
                "netmask": "255.0.0.0",
                "network": "127.0.0.0"
            },
            "ipv6": [
                {
                    "address": "::1",
                    "prefix": "128",
                    "scope": "host"
                }
            ],
            "mtu": 65536,
            "promisc": false,
            "type": "loopback"
        },
        "ansible_machine": "s390x",
        "ansible_machine_id": "b42059a32c50422984f8d7eec6b60ff6",
        "ansible_memfree_mb": 3524,
        "ansible_memory_mb": {
            "nocache": {
                "free": 3695,
                "used": 154
            },
            "real": {
                "free": 3524,
                "total": 3849,
                "used": 325
            },
            "swap": {
                "cached": 0,
                "free": 7000,
                "total": 7000,
                "used": 0
            }
        },
        "ansible_memtotal_mb": 3849,
        "ansible_mounts": [
            {
                "device": "/dev/dasda1",
                "fstype": "ext4",
                "mount": "/",
                "options": "rw,seclabel,relatime,data=ordered",
                "size_available": 5775245312,
                "size_total": 7090429952,
                "uuid": "e483673b-49d0-437d-9c40-5a20347b7fd6"
            }
        ],
        "ansible_nodename": "cpc3lp52.domain.com",
        "ansible_os_family": "RedHat",
        "ansible_pkg_mgr": "yum",
        "ansible_processor": [
            "IBM/S390"
        ],
        "ansible_processor_cores": 10,
        "ansible_product_name": "NA",
        "ansible_product_serial": "NA",
        "ansible_product_uuid": "NA",
        "ansible_product_version": "NA",
        "ansible_python": {
            "executable": "/usr/bin/python",
            "has_sslcontext": true,
            "type": "CPython",
            "version": {
                "major": 2,
                "micro": 5,
                "minor": 7,
                "releaselevel": "final",
                "serial": 0
            },
            "version_info": [
                2,
                7,
                5,
                "final",
                0
            ]
        },
        "ansible_python_version": "2.7.5",
        "ansible_real_group_id": 0,
        "ansible_real_user_id": 0,
        "ansible_selinux": {
            "config_mode": "enforcing",
            "mode": "enforcing",
            "policyvers": 28,
            "status": "enabled",
            "type": "targeted"
        },
        "ansible_service_mgr": "systemd",
        "ansible_ssh_host_key_ecdsa_public": "AAAAE2VjZHNhLXNoYTItbmlzdHAyNTYAAAAIbmlzdHAyNTYAAABBBN5yuS0iSJyMbn0oHvZQbG+jCGDPZIzokIOe+N26X6MWMjG1cxhIlbiRaWwPVinIsNJeVtQ5mvCNtNvncvlI4b8=",
        "ansible_ssh_host_key_ed25519_public": "AAAAC3NzaC1lZDI1NTE5AAAAIMvHToZuxU4K79JbUZW0HDyWQlezeRCsMn9xS2O4px+u",
        "ansible_ssh_host_key_rsa_public": "AAAAB3NzaC1yc2EAAAADAQABAAABAQDKCTnB2HIkx4ENx4IglhTeL/nn9z/xsVJRFTrnZYydCjhkaxBomzrjcJ5DkRfasE9ie7UpX0IJbyNJc+HqVmB2m/JzREOzIVqnNVamBfltTJSej56xJlqSWZF2+l6n2pmcPhIdNSedb3Euc8dI36Oc3Y1F41yS1JvDAsu3Mh/JClVWx+TckLx0C5Yz1EC6wNBTnhaw0APMWW/MQlD0qIFa5ipTIVDVDAFfiHmEnP5rSSdW2s0HIL5Sh26UyZmQB/xq0Hj+ZFX0FAw+1sEs/5iAtJ6Y2DyA02l1SCqyf2htXrO5lqJX8ruzWnLj+wRl+e/2FVjyyWVoviGmkOxgwrhj",
        "ansible_swapfree_mb": 7000,
        "ansible_swaptotal_mb": 7000,
        "ansible_system": "Linux",
        "ansible_system_capabilities": [
            "cap_chown",
            "cap_dac_override",
            "cap_dac_read_search",
            "cap_fowner",
            "cap_fsetid",
            "cap_kill",
            "cap_setgid",
            "cap_setuid",
            "cap_setpcap",
            "cap_linux_immutable",
            "cap_net_bind_service",
            "cap_net_broadcast",
            "cap_net_admin",
            "cap_net_raw",
            "cap_ipc_lock",
            "cap_ipc_owner",
            "cap_sys_module",
            "cap_sys_rawio",
            "cap_sys_chroot",
            "cap_sys_ptrace",
            "cap_sys_pacct",
            "cap_sys_admin",
            "cap_sys_boot",
            "cap_sys_nice",
            "cap_sys_resource",
            "cap_sys_time",
            "cap_sys_tty_config",
            "cap_mknod",
            "cap_lease",
            "cap_audit_write",
            "cap_audit_control",
            "cap_setfcap",
            "cap_mac_override",
            "cap_mac_admin",
            "cap_syslog",
            "35",
            "36+ep"
        ],
        "ansible_system_capabilities_enforced": "True",
        "ansible_system_vendor": "NA",
        "ansible_uptime_seconds": 1051,
        "ansible_user_dir": "/root",
        "ansible_user_gecos": "root",
        "ansible_user_gid": 0,
        "ansible_user_id": "root",
        "ansible_user_shell": "/bin/bash",
        "ansible_user_uid": 0,
        "ansible_userspace_bits": "64",
        "ansible_virtualization_role": "LPAR",
        "ansible_virtualization_type": "PR/SM",
        "module_setup": true
    },
    "changed": false
}
